﻿{
  "$schema": "https://json.schemastore.org/launchsettings.json",
  "iisSettings": {
    "windowsAuthentication": false,
    "anonymousAuthentication": true,
    "iisExpress": {
      "applicationUrl": "http://localhost:2874",
      "sslPort": 44302
    }
  },
  "profiles": {
    "NBUBackend": {
      "commandName": "Project",
      "dotnetRunMessages": true,
      "launchBrowser": true,
      //"launchUrl": "swagger",
      "applicationUrl": "https://localhost:7008;http://localhost:5008",
      "environmentVariables": {
        "ASPNETCORE_ENVIRONMENT": "Development"
      }
    },
    "IIS Express": {
      "commandName": "IISExpress",
      "launchBrowser": true,
      //"launchUrl": "api/todoitems",
      "environmentVariables": {
        "ASPNETCORE_ENVIRONMENT": "Development"
      }
    }
  }
}
